{
  "apps": [{
    "name": "restfulAPI",
    "script": "./bin/www",
    "instances": 2,
    "watch": true,
    "exec_mode": "cluster",
    "env": {
      "NODE_ENV": "development"
    },
    "env_production": "production",
    "error_file": "./logs/err.log",
    "out_file": "./logs/out.log",
    "merge_logs": true,
    "log_date_format": "YYYY-MM-DD HH:mm:ss"
  }]
}